\relax 
\catcode `"\active 
\catcode `<\active 
\catcode `>\active 
\@nameuse{es@quoting}
\select@language{spanish}
\@writefile{toc}{\select@language{spanish}}
\@writefile{lof}{\select@language{spanish}}
\@writefile{lot}{\select@language{spanish}}
\select@language{english}
\@writefile{toc}{\select@language{english}}
\@writefile{lof}{\select@language{english}}
\@writefile{lot}{\select@language{english}}
\select@language{english}
\@writefile{toc}{\select@language{english}}
\@writefile{lof}{\select@language{english}}
\@writefile{lot}{\select@language{english}}
\select@language{catalan}
\@writefile{toc}{\select@language{catalan}}
\@writefile{lof}{\select@language{catalan}}
\@writefile{lot}{\select@language{catalan}}
\select@language{spanish}
\@writefile{toc}{\select@language{spanish}}
\@writefile{lof}{\select@language{spanish}}
\@writefile{lot}{\select@language{spanish}}
\select@language{english}
\@writefile{toc}{\select@language{english}}
\@writefile{lof}{\select@language{english}}
\@writefile{lot}{\select@language{english}}
\citation{fortran}
\@writefile{toc}{\contentsline {section}{\numberline {1}Introduction}{3}}
\@writefile{toc}{\contentsline {subsection}{\numberline {1.1}Motivation}{3}}
\@writefile{toc}{\contentsline {subsection}{\numberline {1.2}Organization}{4}}
\citation{rust-faq}
\citation{rust-faq}
\citation{rust-faq}
\citation{nomicon}
\@writefile{toc}{\contentsline {section}{\numberline {2}Background}{5}}
\@writefile{toc}{\contentsline {subsection}{\numberline {2.1}\textit  {Rust}}{5}}
\citation{basics}
\@writefile{toc}{\contentsline {subsection}{\numberline {2.2}Compilers}{6}}
\citation{on-source-to-source}
\citation{emscripten}
\citation{bacon}
\citation{coffeescript}
\citation{typescript}
\citation{pycparser}
\@writefile{toc}{\contentsline {subsection}{\numberline {2.3}Transcompilers}{7}}
\@writefile{toc}{\contentsline {subsubsection}{\numberline {2.3.1}Previous work}{7}}
\citation{ply}
\@writefile{toc}{\contentsline {subsubsection}{\numberline {2.3.2}Tools used}{8}}
\@writefile{toc}{\contentsline {section}{\numberline {3}Architecture and design}{9}}
\@writefile{toc}{\contentsline {subsection}{\numberline {3.1}Architecture}{9}}
\@writefile{lof}{\contentsline {figure}{\numberline {1}{\ignorespaces Block diagram of the project}}{9}}
\@writefile{toc}{\contentsline {subsubsection}{\numberline {3.1.1}Work done and usage}{10}}
\@writefile{toc}{\contentsline {subsection}{\numberline {3.2}Analysis of a transcompilation example}{11}}
\@writefile{lol}{\contentsline {lstlisting}{\numberline {1}Example source code to transcompile}{11}}
\@writefile{lol}{\contentsline {lstlisting}{\numberline {2}Abstract syntax tree of the C program. Every line corresponds to a node, with the first word being the type of the node and the rest being parameters of it. If a node is indented in relation to its predecessor it means it is the child node of said predecessor.}{12}}
\@writefile{lol}{\contentsline {lstlisting}{\numberline {3}Final code in Rust, result of transcompiling the initial source code.}{14}}
\@writefile{toc}{\contentsline {subsection}{\numberline {3.3}Details of the code generation from the previous example}{14}}
\@writefile{lol}{\contentsline {lstlisting}{\numberline {4}AST for the header of the print\_n function}{15}}
\@writefile{lol}{\contentsline {lstlisting}{\numberline {5}AST for the body of the print\_n function}{16}}
\citation{Rust1}
\@writefile{lol}{\contentsline {lstlisting}{\numberline {6}Result of the code generator visiting the For node and its children.}{18}}
\@writefile{lol}{\contentsline {lstlisting}{\numberline {7}Result of the code generator visiting the FuncDef node for the print\_n function.}{19}}
\@writefile{lol}{\contentsline {lstlisting}{\numberline {8}AST for the header of the add\_one function}{19}}
\@writefile{lol}{\contentsline {lstlisting}{\numberline {9}AST for the body of the add\_one function}{20}}
\@writefile{lol}{\contentsline {lstlisting}{\numberline {10}Result of the code generator visiting the FuncDef node for the add\_one function.}{20}}
\@writefile{lol}{\contentsline {lstlisting}{\numberline {11}AST for the header of the main function}{20}}
\@writefile{lol}{\contentsline {lstlisting}{\numberline {12}AST for the header of the body function}{21}}
\@writefile{lol}{\contentsline {lstlisting}{\numberline {13}Result of the code generator visiting the FuncDef node for the add\_one function.}{22}}
\@writefile{toc}{\contentsline {subsection}{\numberline {3.4}Files and customization}{22}}
\citation{tdd}
\@writefile{toc}{\contentsline {section}{\numberline {4}Tests and examples}{24}}
\@writefile{toc}{\contentsline {subsection}{\numberline {4.1}What is working}{24}}
\citation{Rust2}
\@writefile{toc}{\contentsline {subsection}{\numberline {4.2}Limitations}{26}}
\@writefile{toc}{\contentsline {subsection}{\numberline {4.3}Examples}{28}}
\@writefile{lol}{\contentsline {lstlisting}{\numberline {14}Small program to test enums and switch/case statements.}{28}}
\@writefile{lol}{\contentsline {lstlisting}{\numberline {15}Transcompiled version of the previous program.}{29}}
\@writefile{lol}{\contentsline {lstlisting}{\numberline {16}Small program to test struct and memory allocation.}{30}}
\@writefile{lol}{\contentsline {lstlisting}{\numberline {17}Transcompiled version of the previous program.}{30}}
\@writefile{lol}{\contentsline {lstlisting}{\numberline {18}Small program to test breaks and conditionals.}{32}}
\@writefile{lol}{\contentsline {lstlisting}{\numberline {19}Transcompiled version of the previous program.}{32}}
\@writefile{toc}{\contentsline {section}{\numberline {5}Conclusions}{34}}
\@writefile{toc}{\contentsline {subsection}{\numberline {5.1}Future work}{34}}
\bibstyle{alpha}
\bibcite{fortran}{1}
\bibcite{rust-faq}{2}
\bibcite{nomicon}{3}
\bibcite{basics}{4}
\bibcite{on-source-to-source}{5}
\bibcite{pycparser}{6}
\bibcite{ply}{7}
\bibcite{emscripten}{8}
\bibcite{bacon}{9}
\bibcite{coffeescript}{10}
\bibcite{typescript}{11}
\bibcite{Rust1}{12}
\bibcite{Rust2}{13}
\bibcite{tdd}{14}
